9781743539620
9780141967981
9781633694118
9780857085382
9781847088765
9781921372742
9781408704202
9780091779238
9780141966427
9781459616790
9780753555200
9781742691626
9780733632754
9781633532168
9781292086439
9780141023649
9780553176988
9780731407989
9780975500347
9781118588499
9781781250723
9780061745171
9781847249449
9780736074155
9780442222406
9780316040341
9781444761955
9781743317310
9780316248679
9780131103627
9781780749501
9780062120991
9780007557882
9781785040115
9780730320760
9780241976036
9781612680002
9780099518471
9780141045511
9780060873028
9780593048153
9780732286590
9780733319334
9780733330537
9781742708713
9780006546061
9781841127156
9780732281861
9780470377369
9781742612911
9781444783032
9781118955772
9781460756874
9780730324218
9781473620919
9780857080097
9789387550094
9781846142574
9780330362719
9780140273984
9780593049402
9780731407378
9780593061930
9781846142574
9781408834961
9781408834978
9781408834985
9781408834992
9781408835005
9781408835012
9781408835029
9781743289679
9781501124020
